<?xml version="1.0" encoding="UTF-8"?>
<svg width="22px" height="28px" viewBox="0 0 22 28" version="1.1" xmlns="http://www.w3.org/2000/svg" xmlns:xlink="http://www.w3.org/1999/xlink">
    <!-- Generator: Sketch 39.1 (31720) - http://www.bohemiancoding.com/sketch -->
    <title>Group</title>
    <desc>Created with Sketch.</desc>
    <defs></defs>
    <g id="Page-1" stroke="none" stroke-width="1" fill="none" fill-rule="evenodd">
        <g id="首页-当前摄像头" transform="translate(-32.000000, -620.000000)" fill="#FFFFFF">
            <g id="Group-4" transform="translate(-2.000000, 380.000000)">
                <g id="Group" transform="translate(2.000000, 159.000000)">
                    <g id="全球摄像头" transform="translate(19.000000, 71.000000)">
                        <g id="Group" transform="translate(13.000000, 10.000000)">
                            <path d="M10.8387097,21.6774194 C16.8247637,21.6774194 21.6774194,16.8247637 21.6774194,10.8387097 C21.6774194,4.85265562 16.8247637,0 10.8387097,0 C4.85265562,0 0,4.85265562 0,10.8387097 C0,16.8247637 4.85265562,21.6774194 10.8387097,21.6774194 Z M16.6383701,10.9208211 C16.6383701,14.0947566 14.0691763,16.6686217 10.9010011,16.6686217 C7.73282595,16.6686217 5.16363211,14.0947566 5.16363211,10.9208211 C5.16363211,7.74688563 7.73282595,5.17302053 10.9010011,5.17302053 C14.0691763,5.17302053 16.6383701,7.74688563 16.6383701,10.9208211 Z" id="Combined-Shape"></path>
                            <path d="M4.03243013,24.5796542 L0.512650466,27.3406526 L4.82795174,26.1616124 L11.1390577,24.4372722 L10.6629446,24.4372722 L16.9740505,26.1616124 L21.2893518,27.3406526 L17.7695721,24.5796542 L13.1796769,20.9792319 L12.0647467,22.4005687 L16.6546419,26.000991 L17.4501636,24.4190328 L11.1390577,22.6946926 L10.9010011,22.62965 L10.6629446,22.6946926 L4.35183867,24.4190328 L5.14736028,26.000991 L9.73725549,22.4005687 L8.62232534,20.9792319 L4.03243013,24.5796542 Z M15.4908963,8.36649853 C15.4908963,7.09680938 14.4633335,6.0673783 13.1959487,6.0673783 C11.9285639,6.0673783 10.9010011,7.09680938 10.9010011,8.36649853 C10.9010011,9.63618768 11.9285639,10.6656188 13.1959487,10.6656188 C14.4633335,10.6656188 15.4908963,9.63618768 15.4908963,8.36649853 Z" id="Combined-Shape"></path>
                        </g>
                    </g>
                </g>
            </g>
        </g>
    </g>
</svg>