<?xml version="1.0" encoding="UTF-8"?>
<svg width="66px" height="66px" viewBox="0 0 66 66" version="1.1" xmlns="http://www.w3.org/2000/svg" xmlns:xlink="http://www.w3.org/1999/xlink">
    <!-- Generator: Sketch 39.1 (31720) - http://www.bohemiancoding.com/sketch -->
    <title>Group 5</title>
    <desc>Created with Sketch.</desc>
    <defs></defs>
    <g id="Page-1" stroke="none" stroke-width="1" fill="none" fill-rule="evenodd">
        <g id="实时画面-竖屏" transform="translate(-277.000000, -292.000000)">
            <g id="Group-2" transform="translate(0.000000, 215.000000)">
                <g id="Group-7" transform="translate(250.000000, 50.000000)">
                    <g id="Group-5" transform="translate(27.000000, 27.000000)">
                        <path d="M34.0833333,35.1837574 L34.0833333,65.0683594 L31.9166667,65.0683594 L31.9166667,35.1837574 L10.785062,56.3153621 L9.25299727,54.7832974 L30.384602,33.6516927 L0.5,33.6516927 L0.5,31.485026 L30.384602,31.485026 L9.25299727,10.3534213 L10.785062,8.82135664 L31.9166667,29.9529613 L31.9166667,0.068359375 L34.0833333,0.068359375 L34.0833333,29.9529613 L55.214938,8.82135664 L56.7470027,10.3534213 L35.615398,31.485026 L65.5,31.485026 L65.5,33.6516927 L35.615398,33.6516927 L56.7470027,54.7832974 L55.214938,56.3153621 L34.0833333,35.1837574 Z" id="Combined-Shape" fill="#FFFFFF" opacity="0.35"></path>
                        <path d="M33,53 C44.045695,53 53,44.045695 53,33 C53,21.954305 44.045695,13 33,13 C21.954305,13 13,21.954305 13,33 C13,44.045695 21.954305,53 33,53 Z" id="Oval-11" fill="#6D6D6D"></path>
                        <path d="M32.7875153,30.5411328 C31.5459142,30.5411328 30.5367112,31.5508644 30.5367112,32.7923113 C30.5367112,34.0329536 31.5459142,35.0426852 32.7875153,35.0426852 C34.0275082,35.0426852 35.0367112,34.0329536 35.0367112,32.7923113 C35.0367112,31.5508644 34.0275082,30.5411328 32.7875153,30.5411328 L32.7875153,30.5411328 Z M42.9327896,42.389055 L37.5606429,28.6532189 C37.520525,28.5520898 37.4397683,28.471812 37.3392131,28.4321944 L23.5334579,23.0269995 C23.3880957,22.9696583 23.2218932,23.0056269 23.1119598,23.1161391 C23.0020264,23.2276939 22.9702447,23.3939835 23.029119,23.5389005 L28.4299213,36.7513674 C28.4684761,36.8451986 28.5429807,36.9207848 28.6362417,36.9614449 L42.443039,42.9671591 C42.4930561,42.989053 42.5461992,43 42.5993424,43 L42.6092416,43 C42.8249402,43 43,42.8248485 43,42.6090369 C43,42.5277166 42.9755125,42.4516091 42.9327896,42.389055 L42.9327896,42.389055 Z" id="Fill-59" fill="#FFFFFF" transform="translate(33.000000, 33.000000) rotate(-315.000000) translate(-33.000000, -33.000000) "></path>
                    </g>
                </g>
            </g>
        </g>
    </g>
</svg>