<?xml version="1.0" encoding="UTF-8"?>
<svg width="64px" height="64px" viewBox="0 0 64 64" version="1.1" xmlns="http://www.w3.org/2000/svg" xmlns:xlink="http://www.w3.org/1999/xlink">
    <!-- Generator: Sketch 39.1 (31720) - http://www.bohemiancoding.com/sketch -->
    <title>play</title>
    <desc>Created with Sketch.</desc>
    <defs>
        <path d="M78.8422392,69.5573535 C89.8879342,69.5573535 98.8422392,60.6030485 98.8422392,49.5573535 C98.8422392,38.5116585 89.8879342,29.5573535 78.8422392,29.5573535 C67.7965442,29.5573535 58.8422392,38.5116585 58.8422392,49.5573535 C58.8422392,60.6030485 67.7965442,69.5573535 78.8422392,69.5573535 Z M72.8422392,59.9935319 L72.8422392,40.3572878 L89.8422392,50.1754098 L72.8422392,59.9935319 Z" id="path-1"></path>
        <filter x="-50%" y="-50%" width="200%" height="200%" filterUnits="objectBoundingBox" id="filter-2">
            <feOffset dx="0" dy="5" in="SourceAlpha" result="shadowOffsetOuter1"></feOffset>
            <feGaussianBlur stdDeviation="6" in="shadowOffsetOuter1" result="shadowBlurOuter1"></feGaussianBlur>
            <feColorMatrix values="0 0 0 0 0   0 0 0 0 0   0 0 0 0 0  0 0 0 0.3 0" type="matrix" in="shadowBlurOuter1"></feColorMatrix>
        </filter>
    </defs>
    <g id="Page-1" stroke="none" stroke-width="1" fill="none" fill-rule="evenodd" opacity="0.8">
        <g id="首页-当前摄像头" transform="translate(-157.000000, -463.000000)">
            <g id="Group-4" transform="translate(-2.000000, 380.000000)">
                <g id="albums" transform="translate(2.000000, 55.000000)">
                    <g transform="translate(-51.000000, 5.209790)" id="meteora">
                        <g transform="translate(161.000000, 0.000000)">
                            <g id="play" opacity="0.546758396">
                                <use fill="black" fill-opacity="1" filter="url(#filter-2)" xlink:href="#path-1"></use>
                                <use fill="#FFFFFF" fill-rule="evenodd" xlink:href="#path-1"></use>
                            </g>
                        </g>
                    </g>
                </g>
            </g>
        </g>
    </g>
</svg>