<?xml version="1.0" encoding="UTF-8"?>
<svg width="22px" height="18px" viewBox="0 0 22 18" version="1.1" xmlns="http://www.w3.org/2000/svg" xmlns:xlink="http://www.w3.org/1999/xlink">
    <!-- Generator: Sketch 39.1 (31720) - http://www.bohemiancoding.com/sketch -->
    <title>Selfies Icon</title>
    <desc>Created with Sketch.</desc>
    <defs></defs>
    <g id="Page-1" stroke="none" stroke-width="1" fill="none" fill-rule="evenodd">
        <g id="首页-隐藏摄像头-横屏" transform="translate(-432.000000, -254.000000)" fill="#747474">
            <g id="Group-8-Copy" transform="translate(334.000000, 78.000000)">
                <path d="M101.928571,177.702381 C101.928571,177.267881 101.576571,176.916667 101.142857,176.916667 L98.7857143,176.916667 C98.352,176.916667 98,177.267881 98,177.702381 L98,178.488095 L101.928571,178.488095 L101.928571,177.702381 Z M116.071429,179.928571 L113.6365,176.884714 C113.189429,176.325286 112.512143,176 111.795571,176 L106.204429,176 C105.487857,176 104.811357,176.325286 104.3635,176.884714 L101.928571,179.928571 L100.357143,179.928571 C99.0552143,179.928571 98,180.983786 98,182.285714 L98,190.928571 C98,192.229714 99.0552143,193.285714 100.357143,193.285714 L117.642857,193.285714 C118.944786,193.285714 120,192.229714 120,190.928571 L120,182.285714 C120,180.983786 118.944786,179.928571 117.642857,179.928571 L116.071429,179.928571 Z M107.166667,187.654762 C108.902419,187.654762 110.309524,186.247657 110.309524,184.511905 C110.309524,182.776153 108.902419,181.369048 107.166667,181.369048 C105.430915,181.369048 104.02381,182.776153 104.02381,184.511905 C104.02381,186.247657 105.430915,187.654762 107.166667,187.654762 Z" id="Selfies-Icon"></path>
            </g>
        </g>
    </g>
</svg>